{
  "photos": {
    "page": 1,
    "pages": 29463,
    "perpage": 30,
    "total": "883864",
    "photo": [
      {
        "id": "47676546732",
        "owner": "69809940@N08",
        "secret": "b2a3d463e5",
        "server": "65535",
        "farm": 66,
        "title": "Hello こんにちは",
        "ispublic": 1,
        "isfriend": 0,
        "isfamily": 0
      },
      {
        "id": "32785809887",
        "owner": "148161592@N03",
        "secret": "68334728b5",
        "server": "65535",
        "farm": 66,
        "title": "안전놀이터 – 메이저놀이터 추천\">안전놀이터 메이저놀이터 추천 by good",
        "ispublic": 1,
        "isfriend": 0,
        "isfamily": 0
      },
      {
        "id": "32785809827",
        "owner": "148161592@N03",
        "secret": "2960d0f311",
        "server": "65535",
        "farm": 66,
        "title": "안전놀이터 – 메이저놀이터 추천\">안전놀이터 메이저놀이터 추천 by good",
        "ispublic": 1,
        "isfriend": 0,
        "isfamily": 0
      },
      {
        "id": "46812648315",
        "owner": "148161592@N03",
        "secret": "b5ea6aa7eb",
        "server": "65535",
        "farm": 66,
        "title": "안전놀이터 – 메이저놀이터 추천\">안전놀이터 메이저놀이터 추천 by good",
        "ispublic": 1,
        "isfriend": 0,
        "isfamily": 0
      },
      {
        "id": "32785809617",
        "owner": "148161592@N03",
        "secret": "67646a6b9a",
        "server": "65535",
        "farm": 66,
        "title": "안전놀이터 – 메이저놀이터 추천\">안전놀이터 메이저놀이터 추천 by good",
        "ispublic": 1,
        "isfriend": 0,
        "isfamily": 0
      },
      {
        "id": "47729300681",
        "owner": "148161592@N03",
        "secret": "d99b6267d8",
        "server": "65535",
        "farm": 66,
        "title": "안전놀이터 – 메이저놀이터 추천\">안전놀이터 메이저놀이터 추천 by good",
        "ispublic": 1,
        "isfriend": 0,
        "isfamily": 0
      },
      {
        "id": "46812648115",
        "owner": "148161592@N03",
        "secret": "2d4b0235e4",
        "server": "65535",
        "farm": 66,
        "title": "안전놀이터 – 메이저놀이터 추천\">안전놀이터 메이저놀이터 추천 by good",
        "ispublic": 1,
        "isfriend": 0,
        "isfamily": 0
      },
      {
        "id": "46812647965",
        "owner": "148161592@N03",
        "secret": "0d04d6103c",
        "server": "65535",
        "farm": 66,
        "title": "안전놀이터 – 메이저놀이터 추천\">안전놀이터 메이저놀이터 추천 by good",
        "ispublic": 1,
        "isfriend": 0,
        "isfamily": 0
      },
      {
        "id": "33852087138",
        "owner": "113756879@N03",
        "secret": "6d0b983d47",
        "server": "65535",
        "farm": 66,
        "title": "MX MM HELLO SEAHOURSE!",
        "ispublic": 1,
        "isfriend": 0,
        "isfamily": 0
      },
      {
        "id": "32785797387",
        "owner": "113756879@N03",
        "secret": "2ed46714dc",
        "server": "65535",
        "farm": 66,
        "title": "MX MM HELLO SEAHOURSE!",
        "ispublic": 1,
        "isfriend": 0,
        "isfamily": 0
      },
      {
        "id": "33852087098",
        "owner": "113756879@N03",
        "secret": "5a9ac42d76",
        "server": "65535",
        "farm": 66,
        "title": "MX MM HELLO SEAHOURSE!",
        "ispublic": 1,
        "isfriend": 0,
        "isfamily": 0
      },
      {
        "id": "47676112562",
        "owner": "113756879@N03",
        "secret": "2868bed672",
        "server": "65535",
        "farm": 66,
        "title": "MX MM HELLO SEAHOURSE!",
        "ispublic": 1,
        "isfriend": 0,
        "isfamily": 0
      },
      {
        "id": "33852086908",
        "owner": "113756879@N03",
        "secret": "d628c467dd",
        "server": "65535",
        "farm": 66,
        "title": "MX MM HELLO SEAHOURSE!",
        "ispublic": 1,
        "isfriend": 0,
        "isfamily": 0
      },
      {
        "id": "33852086758",
        "owner": "113756879@N03",
        "secret": "cb3cccc3cb",
        "server": "65535",
        "farm": 66,
        "title": "MX MM HELLO SEAHOURSE!",
        "ispublic": 1,
        "isfriend": 0,
        "isfamily": 0
      },
      {
        "id": "47676112182",
        "owner": "113756879@N03",
        "secret": "fc852a9fd2",
        "server": "65535",
        "farm": 66,
        "title": "MX MM HELLO SEAHOURSE!",
        "ispublic": 1,
        "isfriend": 0,
        "isfamily": 0
      },
      {
        "id": "32785796927",
        "owner": "113756879@N03",
        "secret": "bcfc1bfc10",
        "server": "65535",
        "farm": 66,
        "title": "MX MM HELLO SEAHOURSE!",
        "ispublic": 1,
        "isfriend": 0,
        "isfamily": 0
      },
      {
        "id": "47676112022",
        "owner": "113756879@N03",
        "secret": "a3691da989",
        "server": "65535",
        "farm": 66,
        "title": "MX MM HELLO SEAHOURSE!",
        "ispublic": 1,
        "isfriend": 0,
        "isfamily": 0
      },
      {
        "id": "32785796607",
        "owner": "113756879@N03",
        "secret": "6607b92ec7",
        "server": "65535",
        "farm": 66,
        "title": "MX MM HELLO SEAHOURSE!",
        "ispublic": 1,
        "isfriend": 0,
        "isfamily": 0
      },
      {
        "id": "47676111722",
        "owner": "113756879@N03",
        "secret": "5edd6bc7da",
        "server": "65535",
        "farm": 66,
        "title": "MX MM HELLO SEAHOURSE!",
        "ispublic": 1,
        "isfriend": 0,
        "isfamily": 0
      },
      {
        "id": "47676111582",
        "owner": "113756879@N03",
        "secret": "b3bfbc7bc7",
        "server": "65535",
        "farm": 66,
        "title": "MX MM HELLO SEAHOURSE!",
        "ispublic": 1,
        "isfriend": 0,
        "isfamily": 0
      },
      {
        "id": "32785796577",
        "owner": "113756879@N03",
        "secret": "52ef340370",
        "server": "65535",
        "farm": 66,
        "title": "MX MM HELLO SEAHOURSE!",
        "ispublic": 1,
        "isfriend": 0,
        "isfamily": 0
      },
      {
        "id": "32785796437",
        "owner": "113756879@N03",
        "secret": "0073c81eae",
        "server": "65535",
        "farm": 66,
        "title": "MX MM HELLO SEAHOURSE!",
        "ispublic": 1,
        "isfriend": 0,
        "isfamily": 0
      },
      {
        "id": "32785796497",
        "owner": "113756879@N03",
        "secret": "804482cc40",
        "server": "65535",
        "farm": 66,
        "title": "MX MM HELLO SEAHOURSE!",
        "ispublic": 1,
        "isfriend": 0,
        "isfamily": 0
      },
      {
        "id": "47676111262",
        "owner": "113756879@N03",
        "secret": "349318215d",
        "server": "65535",
        "farm": 66,
        "title": "MX MM HELLO SEAHOURSE!",
        "ispublic": 1,
        "isfriend": 0,
        "isfamily": 0
      },
      {
        "id": "47676110872",
        "owner": "113756879@N03",
        "secret": "b4cdab9172",
        "server": "65535",
        "farm": 66,
        "title": "MX MM HELLO SEAHOURSE!",
        "ispublic": 1,
        "isfriend": 0,
        "isfamily": 0
      },
      {
        "id": "47729282511",
        "owner": "46277845@N07",
        "secret": "d2a1c0a829",
        "server": "65535",
        "farm": 66,
        "title": "Hello down there",
        "ispublic": 1,
        "isfriend": 0,
        "isfamily": 0
      },
      {
        "id": "47676108732",
        "owner": "146579469@N06",
        "secret": "f7fa593118",
        "server": "65535",
        "farm": 66,
        "title": "안전놀이터 – 메이저놀이터 추천\">안전놀이터 메이저놀이터 추천 by good",
        "ispublic": 1,
        "isfriend": 0,
        "isfamily": 0
      },
      {
        "id": "46812628535",
        "owner": "146579469@N06",
        "secret": "85ba91a028",
        "server": "65535",
        "farm": 66,
        "title": "안전놀이터 – 메이저놀이터 추천\">안전놀이터 메이저놀이터 추천 by good",
        "ispublic": 1,
        "isfriend": 0,
        "isfamily": 0
      },
      {
        "id": "47729718621",
        "owner": "171254858@N08",
        "secret": "cc90c920d5",
        "server": "65535",
        "farm": 66,
        "title": "190427 HELLO MOOMOO FANMEETING IN SINGAPORE",
        "ispublic": 1,
        "isfriend": 0,
        "isfamily": 0
      },
      {
        "id": "40762632813",
        "owner": "170962567@N06",
        "secret": "9f60106fda",
        "server": "65535",
        "farm": 66,
        "title": "Hello Panda",
        "ispublic": 1,
        "isfriend": 0,
        "isfamily": 0
      }
    ]
  },
  "stat": "ok"
}